EESchema Schematic File Version 2
LIBS:MkII-rescue
LIBS:power
LIBS:device
LIBS:transistors
LIBS:conn
LIBS:linear
LIBS:regul
LIBS:74xx
LIBS:cmos4000
LIBS:adc-dac
LIBS:memory
LIBS:xilinx
LIBS:microcontrollers
LIBS:dsp
LIBS:microchip
LIBS:analog_switches
LIBS:motorola
LIBS:texas
LIBS:intel
LIBS:audio
LIBS:interface
LIBS:digital-audio
LIBS:philips
LIBS:display
LIBS:cypress
LIBS:siliconi
LIBS:opto
LIBS:atmel
LIBS:contrib
LIBS:valves
LIBS:_antenna
LIBS:_audio
LIBS:_charge-pump-regulators
LIBS:_connectors
LIBS:_discrete
LIBS:_div
LIBS:_ic
LIBS:_linear-regulators
LIBS:_motor_drivers
LIBS:_power
LIBS:_sensors
LIBS:_stm32
LIBS:_transceiver
LIBS:_wireless
LIBS:Comp2014
LIBS:cvra
LIBS:IRF
LIBS:logo
LIBS:Mec
LIBS:National
LIBS:phoenix
LIBS:MkII-cache
EELAYER 25 0
EELAYER END
$Descr A4 11693 8268
encoding utf-8
Sheet 1 1
Title ""
Date ""
Rev ""
Comp ""
Comment1 ""
Comment2 ""
Comment3 ""
Comment4 ""
$EndDescr
$Comp
L ESP-07 U1
U 1 1 5783A870
P 4500 3850
F 0 "U1" H 4600 3800 60  0000 C CNN
F 1 "ESP-07" H 4600 3600 60  0000 C CNN
F 2 "" H 4550 3400 60  0000 C CNN
F 3 "" H 4600 3600 60  0000 C CNN
	1    4500 3850
	1    0    0    -1  
$EndComp
$Comp
L GND #PWR01
U 1 1 5783A8F2
P 5350 5350
F 0 "#PWR01" H 5350 5100 50  0001 C CNN
F 1 "GND" H 5350 5200 50  0000 C CNN
F 2 "" H 5350 5350 50  0000 C CNN
F 3 "" H 5350 5350 50  0000 C CNN
	1    5350 5350
	1    0    0    -1  
$EndComp
$Comp
L +3.3V #PWR02
U 1 1 5783A922
P 4200 5350
F 0 "#PWR02" H 4200 5200 50  0001 C CNN
F 1 "+3.3V" H 4200 5490 50  0000 C CNN
F 2 "" H 4200 5350 50  0000 C CNN
F 3 "" H 4200 5350 50  0000 C CNN
	1    4200 5350
	-1   0    0    1   
$EndComp
$Comp
L CP C2
U 1 1 5783A964
P 4600 5350
F 0 "C2" H 4625 5450 50  0000 L CNN
F 1 "1000uF" H 4625 5250 50  0000 L CNN
F 2 "" H 4638 5200 50  0000 C CNN
F 3 "" H 4600 5350 50  0000 C CNN
	1    4600 5350
	0    -1   -1   0   
$EndComp
$Comp
L C C1
U 1 1 5783A9F5
P 4600 4950
F 0 "C1" H 4625 5050 50  0000 L CNN
F 1 "100nF" H 4625 4850 50  0000 L CNN
F 2 "" H 4638 4800 50  0000 C CNN
F 3 "" H 4600 4950 50  0000 C CNN
	1    4600 4950
	0    -1   -1   0   
$EndComp
$Comp
L MCP1703 U2
U 1 1 578637DA
P 3000 4950
F 0 "U2" H 3250 5150 60  0000 C CNN
F 1 "MCP1703" H 2950 5150 60  0000 C CNN
F 2 "" H 2900 5400 60  0000 C CNN
F 3 "" H 2900 5400 60  0000 C CNN
	1    3000 4950
	1    0    0    -1  
$EndComp
$Comp
L GND #PWR03
U 1 1 578638C9
P 3000 5400
F 0 "#PWR03" H 3000 5150 50  0001 C CNN
F 1 "GND" H 3000 5250 50  0000 C CNN
F 2 "" H 3000 5400 50  0000 C CNN
F 3 "" H 3000 5400 50  0000 C CNN
	1    3000 5400
	1    0    0    -1  
$EndComp
$Comp
L +12V #PWR04
U 1 1 578638FD
P 2400 4950
F 0 "#PWR04" H 2400 4800 50  0001 C CNN
F 1 "+12V" H 2400 5090 50  0000 C CNN
F 2 "" H 2400 4950 50  0000 C CNN
F 3 "" H 2400 4950 50  0000 C CNN
	1    2400 4950
	0    -1   -1   0   
$EndComp
$Comp
L CP C4
U 1 1 57863932
P 2550 5150
F 0 "C4" H 2575 5250 50  0000 L CNN
F 1 "10uF" H 2575 5050 50  0000 L CNN
F 2 "" H 2588 5000 50  0000 C CNN
F 3 "" H 2550 5150 50  0000 C CNN
	1    2550 5150
	1    0    0    -1  
$EndComp
$Comp
L CP C3
U 1 1 57863A5F
P 3450 5150
F 0 "C3" H 3475 5250 50  0000 L CNN
F 1 "10uF" H 3475 5050 50  0000 L CNN
F 2 "" H 3488 5000 50  0000 C CNN
F 3 "" H 3450 5150 50  0000 C CNN
	1    3450 5150
	1    0    0    -1  
$EndComp
$Comp
L +3.3V #PWR05
U 1 1 57863D11
P 6050 4450
F 0 "#PWR05" H 6050 4300 50  0001 C CNN
F 1 "+3.3V" H 6050 4590 50  0000 C CNN
F 2 "" H 6050 4450 50  0000 C CNN
F 3 "" H 6050 4450 50  0000 C CNN
	1    6050 4450
	0    1    1    0   
$EndComp
$Comp
L R R1
U 1 1 57863D37
P 5750 4350
F 0 "R1" V 5830 4350 50  0000 C CNN
F 1 "46k" V 5750 4350 50  0000 C CNN
F 2 "" V 5680 4350 50  0000 C CNN
F 3 "" H 5750 4350 50  0000 C CNN
	1    5750 4350
	0    1    1    0   
$EndComp
$Comp
L R R2
U 1 1 57863DCC
P 5750 4500
F 0 "R2" V 5830 4500 50  0000 C CNN
F 1 "46k" V 5750 4500 50  0000 C CNN
F 2 "" V 5680 4500 50  0000 C CNN
F 3 "" H 5750 4500 50  0000 C CNN
	1    5750 4500
	0    1    1    0   
$EndComp
$Comp
L R R3
U 1 1 578640BF
P 5550 4700
F 0 "R3" V 5630 4700 50  0000 C CNN
F 1 "46k" V 5550 4700 50  0000 C CNN
F 2 "" V 5480 4700 50  0000 C CNN
F 3 "" H 5550 4700 50  0000 C CNN
	1    5550 4700
	1    0    0    -1  
$EndComp
$Comp
L R R4
U 1 1 57864205
P 3450 4100
F 0 "R4" V 3530 4100 50  0000 C CNN
F 1 "10k" V 3450 4100 50  0000 C CNN
F 2 "" V 3380 4100 50  0000 C CNN
F 3 "" H 3450 4100 50  0000 C CNN
	1    3450 4100
	1    0    0    -1  
$EndComp
$Comp
L SW_PUSH SW1
U 1 1 5786474C
P 3000 3950
F 0 "SW1" H 3150 4060 50  0000 C CNN
F 1 "RESET" H 3000 3870 50  0000 C CNN
F 2 "" H 3000 3950 50  0000 C CNN
F 3 "" H 3000 3950 50  0000 C CNN
	1    3000 3950
	1    0    0    -1  
$EndComp
$Comp
L GND #PWR06
U 1 1 578647DF
P 2600 3950
F 0 "#PWR06" H 2600 3700 50  0001 C CNN
F 1 "GND" H 2600 3800 50  0000 C CNN
F 2 "" H 2600 3950 50  0000 C CNN
F 3 "" H 2600 3950 50  0000 C CNN
	1    2600 3950
	0    1    1    0   
$EndComp
$Comp
L CONN_01X04-RESCUE-MkII P1
U 1 1 57864784
P 4350 2150
F 0 "P1" H 4350 2400 50  0000 C CNN
F 1 "SERIAL_PLAYER" V 4450 2150 50  0000 C CNN
F 2 "" H 4350 2150 50  0000 C CNN
F 3 "" H 4350 2150 50  0000 C CNN
	1    4350 2150
	0    -1   -1   0   
$EndComp
$Comp
L BS170 Q1
U 1 1 578650CA
P 4350 3050
F 0 "Q1" H 4550 3125 50  0000 L CNN
F 1 "BS170" H 4550 3050 50  0000 L CNN
F 2 "TO-92" H 4550 2975 50  0000 L CIN
F 3 "" H 4350 3050 50  0000 L CNN
	1    4350 3050
	0    -1   -1   0   
$EndComp
$Comp
L GND #PWR07
U 1 1 57865208
P 4750 2950
F 0 "#PWR07" H 4750 2700 50  0001 C CNN
F 1 "GND" H 4750 2800 50  0000 C CNN
F 2 "" H 4750 2950 50  0000 C CNN
F 3 "" H 4750 2950 50  0000 C CNN
	1    4750 2950
	0    -1   -1   0   
$EndComp
$Comp
L R R5
U 1 1 57865282
P 4650 3100
F 0 "R5" V 4730 3100 50  0000 C CNN
F 1 "1M" V 4650 3100 50  0000 C CNN
F 2 "" V 4580 3100 50  0000 C CNN
F 3 "" H 4650 3100 50  0000 C CNN
	1    4650 3100
	1    0    0    -1  
$EndComp
$Comp
L CONN_02X14 P2
U 1 1 57865484
P 6300 2900
F 0 "P2" H 6300 3650 50  0000 C CNN
F 1 "MCP23017" V 6300 2900 50  0000 C CNN
F 2 "" H 6300 1750 50  0000 C CNN
F 3 "" H 6300 1750 50  0000 C CNN
	1    6300 2900
	1    0    0    -1  
$EndComp
$Comp
L +3.3V #PWR08
U 1 1 578658C7
P 6050 4150
F 0 "#PWR08" H 6050 4000 50  0001 C CNN
F 1 "+3.3V" H 6050 4290 50  0000 C CNN
F 2 "" H 6050 4150 50  0000 C CNN
F 3 "" H 6050 4150 50  0000 C CNN
	1    6050 4150
	0    1    1    0   
$EndComp
$Comp
L R R6
U 1 1 578658F9
P 5800 3950
F 0 "R6" V 5880 3950 50  0000 C CNN
F 1 "10k" V 5800 3950 50  0000 C CNN
F 2 "" V 5730 3950 50  0000 C CNN
F 3 "" H 5800 3950 50  0000 C CNN
	1    5800 3950
	0    1    1    0   
$EndComp
$Comp
L R R7
U 1 1 57865986
P 5800 4150
F 0 "R7" V 5880 4150 50  0000 C CNN
F 1 "10k" V 5800 4150 50  0000 C CNN
F 2 "" V 5730 4150 50  0000 C CNN
F 3 "" H 5800 4150 50  0000 C CNN
	1    5800 4150
	0    1    1    0   
$EndComp
$Comp
L +3.3V #PWR09
U 1 1 57865FD1
P 4000 2350
F 0 "#PWR09" H 4000 2200 50  0001 C CNN
F 1 "+3.3V" H 4000 2490 50  0000 C CNN
F 2 "" H 4000 2350 50  0000 C CNN
F 3 "" H 4000 2350 50  0000 C CNN
	1    4000 2350
	0    -1   -1   0   
$EndComp
$Comp
L R R9
U 1 1 578665C8
P 5200 2550
F 0 "R9" V 5280 2550 50  0000 C CNN
F 1 "10k" V 5200 2550 50  0000 C CNN
F 2 "" V 5130 2550 50  0000 C CNN
F 3 "" H 5200 2550 50  0000 C CNN
	1    5200 2550
	1    0    0    -1  
$EndComp
$Comp
L R R8
U 1 1 578667EB
P 5000 2550
F 0 "R8" V 5080 2550 50  0000 C CNN
F 1 "10k" V 5000 2550 50  0000 C CNN
F 2 "" V 4930 2550 50  0000 C CNN
F 3 "" H 5000 2550 50  0000 C CNN
	1    5000 2550
	1    0    0    -1  
$EndComp
$Comp
L CONN_01X03 P3
U 1 1 5786B12C
P 5600 1900
F 0 "P3" H 5600 2100 50  0000 C CNN
F 1 "AMP_POWER" V 5700 1900 50  0000 C CNN
F 2 "" H 5600 1900 50  0000 C CNN
F 3 "" H 5600 1900 50  0000 C CNN
	1    5600 1900
	0    -1   -1   0   
$EndComp
$Comp
L +12V #PWR010
U 1 1 5786B328
P 5300 2100
F 0 "#PWR010" H 5300 1950 50  0001 C CNN
F 1 "+12V" H 5300 2240 50  0000 C CNN
F 2 "" H 5300 2100 50  0000 C CNN
F 3 "" H 5300 2100 50  0000 C CNN
	1    5300 2100
	0    -1   -1   0   
$EndComp
$Comp
L GND #PWR011
U 1 1 5786B38C
P 5600 2150
F 0 "#PWR011" H 5600 1900 50  0001 C CNN
F 1 "GND" H 5600 2000 50  0000 C CNN
F 2 "" H 5600 2150 50  0000 C CNN
F 3 "" H 5600 2150 50  0000 C CNN
	1    5600 2150
	1    0    0    -1  
$EndComp
$Comp
L R R10
U 1 1 5786BCCA
P 5850 2150
F 0 "R10" V 5930 2150 50  0000 C CNN
F 1 "10k" V 5850 2150 50  0000 C CNN
F 2 "" V 5780 2150 50  0000 C CNN
F 3 "" H 5850 2150 50  0000 C CNN
	1    5850 2150
	0    1    1    0   
$EndComp
$Comp
L CONN_02X14 P4
U 1 1 5786D84D
P 7900 2900
F 0 "P4" H 7900 3650 50  0000 C CNN
F 1 "TEENSY" V 7900 2900 50  0000 C CNN
F 2 "" H 7900 1750 50  0000 C CNN
F 3 "" H 7900 1750 50  0000 C CNN
	1    7900 2900
	1    0    0    -1  
$EndComp
$Comp
L BS170 Q?
U 1 1 5786F52A
P 7300 2150
F 0 "Q?" H 7500 2225 50  0000 L CNN
F 1 "BS170" H 7500 2150 50  0000 L CNN
F 2 "TO-92" H 7500 2075 50  0000 L CIN
F 3 "" H 7300 2150 50  0000 L CNN
	1    7300 2150
	0    1    1    0   
$EndComp
$Comp
L GND #PWR?
U 1 1 5786F74C
P 6900 2250
F 0 "#PWR?" H 6900 2000 50  0001 C CNN
F 1 "GND" H 6900 2100 50  0000 C CNN
F 2 "" H 6900 2250 50  0000 C CNN
F 3 "" H 6900 2250 50  0000 C CNN
	1    6900 2250
	0    1    1    0   
$EndComp
$Comp
L R R11
U 1 1 5786FC2F
P 7000 2100
F 0 "R11" V 7080 2100 50  0000 C CNN
F 1 "1M" V 7000 2100 50  0000 C CNN
F 2 "" V 6930 2100 50  0000 C CNN
F 3 "" H 7000 2100 50  0000 C CNN
	1    7000 2100
	1    0    0    -1  
$EndComp
$Comp
L +3.3V #PWR?
U 1 1 5786FF62
P 8350 2450
F 0 "#PWR?" H 8350 2300 50  0001 C CNN
F 1 "+3.3V" H 8350 2590 50  0000 C CNN
F 2 "" H 8350 2450 50  0000 C CNN
F 3 "" H 8350 2450 50  0000 C CNN
	1    8350 2450
	0    1    1    0   
$EndComp
$Comp
L R R12
U 1 1 5787083E
P 7250 3900
F 0 "R12" V 7330 3900 50  0000 C CNN
F 1 "1k" V 7250 3900 50  0000 C CNN
F 2 "" V 7180 3900 50  0000 C CNN
F 3 "" H 7250 3900 50  0000 C CNN
	1    7250 3900
	0    1    1    0   
$EndComp
$Comp
L R R13
U 1 1 578708E1
P 7250 4050
F 0 "R13" V 7330 4050 50  0000 C CNN
F 1 "1k" V 7250 4050 50  0000 C CNN
F 2 "" V 7180 4050 50  0000 C CNN
F 3 "" H 7250 4050 50  0000 C CNN
	1    7250 4050
	0    1    1    0   
$EndComp
$Comp
L CONN_01X04-RESCUE-MkII P5
U 1 1 5787CA89
P 3300 2150
F 0 "P5" H 3300 2400 50  0000 C CNN
F 1 "DIAG_LED" V 3400 2150 50  0000 C CNN
F 2 "" H 3300 2150 50  0000 C CNN
F 3 "" H 3300 2150 50  0000 C CNN
	1    3300 2150
	0    -1   -1   0   
$EndComp
$Comp
L GND #PWR?
U 1 1 5787CB8C
P 3150 2550
F 0 "#PWR?" H 3150 2300 50  0001 C CNN
F 1 "GND" H 3150 2400 50  0000 C CNN
F 2 "" H 3150 2550 50  0000 C CNN
F 3 "" H 3150 2550 50  0000 C CNN
	1    3150 2550
	1    0    0    -1  
$EndComp
$Comp
L R R14
U 1 1 5787CC50
P 3300 2550
F 0 "R14" V 3380 2550 50  0000 C CNN
F 1 "4.6k" V 3300 2550 50  0000 C CNN
F 2 "" V 3230 2550 50  0000 C CNN
F 3 "" H 3300 2550 50  0000 C CNN
	1    3300 2550
	1    0    0    -1  
$EndComp
$Comp
L R R15
U 1 1 5787CD09
P 3450 2550
F 0 "R15" V 3530 2550 50  0000 C CNN
F 1 "4.6k" V 3450 2550 50  0000 C CNN
F 2 "" V 3380 2550 50  0000 C CNN
F 3 "" H 3450 2550 50  0000 C CNN
	1    3450 2550
	1    0    0    -1  
$EndComp
$Comp
L CONN_02X14 P6
U 1 1 5787F7CF
P 2400 2650
F 0 "P6" H 2400 3400 50  0000 C CNN
F 1 "AMP_PORTS" V 2400 2650 50  0000 C CNN
F 2 "" H 2400 1500 50  0000 C CNN
F 3 "" H 2400 1500 50  0000 C CNN
	1    2400 2650
	1    0    0    -1  
$EndComp
$Comp
L +12V #PWR?
U 1 1 5787F9A6
P 2950 3300
F 0 "#PWR?" H 2950 3150 50  0001 C CNN
F 1 "+12V" H 2950 3440 50  0000 C CNN
F 2 "" H 2950 3300 50  0000 C CNN
F 3 "" H 2950 3300 50  0000 C CNN
	1    2950 3300
	0    1    1    0   
$EndComp
$Comp
L +12V #PWR?
U 1 1 5787FA14
P 1900 3300
F 0 "#PWR?" H 1900 3150 50  0001 C CNN
F 1 "+12V" H 1900 3440 50  0000 C CNN
F 2 "" H 1900 3300 50  0000 C CNN
F 3 "" H 1900 3300 50  0000 C CNN
	1    1900 3300
	0    -1   -1   0   
$EndComp
$Comp
L GND #PWR?
U 1 1 578801FD
P 2750 3200
F 0 "#PWR?" H 2750 2950 50  0001 C CNN
F 1 "GND" H 2750 3050 50  0000 C CNN
F 2 "" H 2750 3200 50  0000 C CNN
F 3 "" H 2750 3200 50  0000 C CNN
	1    2750 3200
	0    -1   -1   0   
$EndComp
$Comp
L GND #PWR?
U 1 1 5788024D
P 2050 3200
F 0 "#PWR?" H 2050 2950 50  0001 C CNN
F 1 "GND" H 2050 3050 50  0000 C CNN
F 2 "" H 2050 3200 50  0000 C CNN
F 3 "" H 2050 3200 50  0000 C CNN
	1    2050 3200
	0    1    1    0   
$EndComp
$Comp
L +3.3V #PWR?
U 1 1 578805BA
P 2900 2500
F 0 "#PWR?" H 2900 2350 50  0001 C CNN
F 1 "+3.3V" H 2900 2640 50  0000 C CNN
F 2 "" H 2900 2500 50  0000 C CNN
F 3 "" H 2900 2500 50  0000 C CNN
	1    2900 2500
	0    1    1    0   
$EndComp
$Comp
L +3.3V #PWR?
U 1 1 578806A1
P 1900 2500
F 0 "#PWR?" H 1900 2350 50  0001 C CNN
F 1 "+3.3V" H 1900 2640 50  0000 C CNN
F 2 "" H 1900 2500 50  0000 C CNN
F 3 "" H 1900 2500 50  0000 C CNN
	1    1900 2500
	0    -1   -1   0   
$EndComp
$Comp
L R R16
U 1 1 57880D94
P 3600 3200
F 0 "R16" V 3680 3200 50  0000 C CNN
F 1 "1k" V 3600 3200 50  0000 C CNN
F 2 "" V 3530 3200 50  0000 C CNN
F 3 "" H 3600 3200 50  0000 C CNN
	1    3600 3200
	0    1    1    0   
$EndComp
$Comp
L R R17
U 1 1 57880E3B
P 3600 3350
F 0 "R17" V 3680 3350 50  0000 C CNN
F 1 "1k" V 3600 3350 50  0000 C CNN
F 2 "" V 3530 3350 50  0000 C CNN
F 3 "" H 3600 3350 50  0000 C CNN
	1    3600 3350
	0    1    1    0   
$EndComp
Connection ~ 5350 4650
Wire Wire Line
	3450 4950 4450 4950
Connection ~ 4200 4950
Wire Wire Line
	4750 4950 5550 4950
Connection ~ 5350 4950
Wire Wire Line
	4200 5350 4450 5350
Wire Wire Line
	5350 4650 5350 5350
Wire Wire Line
	5350 5350 4750 5350
Wire Wire Line
	3000 5300 3000 5400
Wire Wire Line
	2400 4950 2550 4950
Wire Wire Line
	3450 4250 3450 5000
Wire Wire Line
	2550 5300 3450 5300
Wire Wire Line
	2550 4950 2550 5000
Connection ~ 3000 5300
Wire Wire Line
	3600 4150 3600 4950
Connection ~ 3600 4950
Wire Wire Line
	6050 4450 5900 4450
Wire Wire Line
	5900 4350 5900 4500
Connection ~ 5900 4450
Wire Wire Line
	4800 4350 5600 4350
Wire Wire Line
	5600 4500 5000 4500
Wire Wire Line
	5000 4500 5000 4450
Wire Wire Line
	5000 4450 4800 4450
Wire Wire Line
	4800 4550 5550 4550
Wire Wire Line
	5550 4950 5550 4850
Wire Wire Line
	3300 3950 4400 3950
Connection ~ 3450 4950
Connection ~ 3450 3950
Wire Wire Line
	2700 3950 2600 3950
Wire Wire Line
	3600 4150 4400 4150
Wire Wire Line
	5350 4650 4800 4650
Wire Wire Line
	4200 4650 4200 5350
Wire Wire Line
	4200 4650 4400 4650
Wire Wire Line
	4550 2950 4750 2950
Wire Wire Line
	4400 3250 5350 3250
Wire Wire Line
	5350 3250 5350 3000
Connection ~ 4650 3250
Wire Wire Line
	6050 3350 5500 3350
Wire Wire Line
	5500 3350 5500 4150
Wire Wire Line
	5500 4150 4800 4150
Wire Wire Line
	6050 3450 5550 3450
Wire Wire Line
	5550 3450 5550 4250
Wire Wire Line
	5550 4250 4800 4250
Wire Wire Line
	6050 4150 5950 4150
Wire Wire Line
	5650 4150 5550 4150
Connection ~ 5550 4150
Wire Wire Line
	5950 3950 6050 3950
Wire Wire Line
	6050 3950 6050 4150
Wire Wire Line
	5650 3950 5500 3950
Connection ~ 5500 3950
Wire Wire Line
	3850 3950 3850 3850
Wire Wire Line
	3850 3850 6750 3850
Wire Wire Line
	6750 3850 6750 3250
Wire Wire Line
	6750 3250 6400 3250
Connection ~ 6550 3250
Connection ~ 3850 3950
Wire Wire Line
	4150 2950 4150 2550
Wire Wire Line
	4150 2550 4300 2550
Wire Wire Line
	4300 2550 4300 2350
Wire Wire Line
	4200 2350 4000 2350
Wire Wire Line
	4500 2350 5200 2350
Wire Wire Line
	5200 2350 5200 2400
Wire Wire Line
	4400 2350 4400 2400
Wire Wire Line
	4400 2400 5000 2400
Wire Wire Line
	5200 2700 5200 3950
Wire Wire Line
	5200 3950 4800 3950
Wire Wire Line
	5000 2700 5000 4050
Wire Wire Line
	4800 4050 7100 4050
Wire Wire Line
	4650 2950 4650 2950
Connection ~ 4650 2950
Wire Wire Line
	4200 2950 4150 2950
Wire Wire Line
	5350 3000 6050 3000
Wire Wire Line
	6050 3000 6050 2950
Wire Wire Line
	5500 2100 5300 2100
Wire Wire Line
	5600 2100 5600 2150
Wire Wire Line
	5700 2100 5700 2150
Wire Wire Line
	6000 2150 6000 2350
Wire Wire Line
	7500 2250 7650 2250
Wire Wire Line
	6900 2250 7100 2250
Connection ~ 7000 2250
Wire Wire Line
	6050 1950 7250 1950
Wire Wire Line
	6000 2350 6050 2350
Wire Wire Line
	6050 1950 6050 2250
Connection ~ 7000 1950
Wire Wire Line
	8150 2450 8350 2450
Wire Wire Line
	7650 2350 7400 2350
Wire Wire Line
	7400 2350 7400 3900
Wire Wire Line
	7100 3900 5200 3900
Connection ~ 5200 3900
Wire Wire Line
	7650 2450 7450 2450
Wire Wire Line
	7450 2450 7450 4050
Wire Wire Line
	7450 4050 7400 4050
Connection ~ 5000 4050
Wire Wire Line
	3150 2350 3150 2550
Wire Wire Line
	3300 2400 3350 2400
Wire Wire Line
	3350 2400 3350 2350
Wire Wire Line
	3450 2400 3450 2350
Wire Wire Line
	3450 2700 3450 2750
Wire Wire Line
	3450 2750 3700 2750
Wire Wire Line
	3700 2750 3700 1850
Wire Wire Line
	3700 1850 5000 1850
Wire Wire Line
	5000 1850 5000 2250
Wire Wire Line
	5000 2250 5450 2250
Wire Wire Line
	5450 2250 5450 2450
Wire Wire Line
	5450 2450 6050 2450
Wire Wire Line
	3300 2700 3300 2800
Wire Wire Line
	3300 2800 3750 2800
Wire Wire Line
	3750 2800 3750 1900
Wire Wire Line
	3750 1900 4950 1900
Wire Wire Line
	4950 1900 4950 2300
Wire Wire Line
	4950 2300 5400 2300
Wire Wire Line
	5400 2300 5400 2500
Wire Wire Line
	5400 2500 6000 2500
Wire Wire Line
	6000 2500 6000 2550
Wire Wire Line
	6000 2550 6050 2550
Wire Wire Line
	2650 3300 2950 3300
Wire Wire Line
	1900 3300 2150 3300
Wire Wire Line
	2050 3200 2150 3200
Wire Wire Line
	2750 3200 2650 3200
Wire Wire Line
	2900 2500 2650 2500
Wire Wire Line
	2150 2500 1900 2500
Wire Wire Line
	2150 3000 2050 3000
Connection ~ 2050 3200
Wire Wire Line
	2050 3000 2050 3200
Wire Wire Line
	2650 2300 2850 2300
Wire Wire Line
	2850 2300 2850 2950
Wire Wire Line
	2850 2950 3300 2950
Wire Wire Line
	3300 2950 3300 3600
Wire Wire Line
	1900 3600 5550 3600
Connection ~ 5550 3600
Wire Wire Line
	2650 2400 2800 2400
Wire Wire Line
	2800 2400 2800 3000
Wire Wire Line
	2800 3000 3250 3000
Wire Wire Line
	3250 3000 3250 3650
Wire Wire Line
	1950 3650 5500 3650
Connection ~ 5500 3650
Wire Wire Line
	2150 2300 1900 2300
Wire Wire Line
	1900 2300 1900 3600
Connection ~ 3300 3600
Wire Wire Line
	2150 2400 1950 2400
Wire Wire Line
	1950 2400 1950 3650
Connection ~ 3250 3650
Wire Wire Line
	6050 2650 5300 2650
Wire Wire Line
	5300 2650 5300 3350
Wire Wire Line
	5300 3350 4000 3350
Wire Wire Line
	4000 3350 4000 3200
Wire Wire Line
	4000 3200 3750 3200
Wire Wire Line
	5400 2750 6050 2750
Wire Wire Line
	5400 2750 5400 3400
Wire Wire Line
	5400 3400 3750 3400
Wire Wire Line
	3750 3400 3750 3350
Wire Wire Line
	3450 3200 3400 3200
Wire Wire Line
	3400 3500 3400 2850
Wire Wire Line
	3400 2850 2950 2850
Wire Wire Line
	2950 2850 2950 2600
Wire Wire Line
	2950 2600 2650 2600
Wire Wire Line
	3450 3350 3350 3350
Wire Wire Line
	3350 2900 3350 3450
Wire Wire Line
	3350 2900 2900 2900
Wire Wire Line
	2900 2900 2900 2700
Wire Wire Line
	2900 2700 2650 2700
Wire Wire Line
	3350 3450 2100 3450
Wire Wire Line
	2100 3450 2100 2700
Wire Wire Line
	2100 2700 2150 2700
Connection ~ 3350 3350
Wire Wire Line
	2000 3500 3400 3500
Wire Wire Line
	2000 2600 2150 2600
Connection ~ 3400 3200
Wire Wire Line
	2000 3500 2000 2600
Text Label 5900 3400 0    60   ~ 0
SCL
Text Label 5900 3500 0    60   ~ 0
SDA
Text Label 5850 3000 0    60   ~ 0
GPB7
Text Label 6000 2250 0    60   ~ 0
GPB0
Text Label 6600 3300 0    60   ~ 0
RESET
Text Label 6500 2300 0    60   ~ 0
GPA7
Text Label 6550 2950 0    60   ~ 0
GPA0
Text Label 6550 3050 0    60   ~ 0
INTA
Text Label 6550 3150 0    60   ~ 0
INTB
$Comp
L R R15
U 1 1 589A5946
P 3750 4100
F 0 "R15" V 3830 4100 50  0000 C CNN
F 1 "1k" V 3750 4100 50  0000 C CNN
F 2 "" V 3680 4100 50  0000 C CNN
F 3 "" H 3750 4100 50  0000 C CNN
	1    3750 4100
	1    0    0    -1  
$EndComp
Wire Wire Line
	4400 4250 3750 4250
Connection ~ 3750 3950
$EndSCHEMATC
