G04 #@! TF.GenerationSoftware,KiCad,Pcbnew,no-vcs-found-57ded58~58~ubuntu16.04.1*
G04 #@! TF.CreationDate,2017-04-13T19:48:57+03:00*
G04 #@! TF.ProjectId,motherboard,6D6F74686572626F6172642E6B696361,rev?*
G04 #@! TF.FileFunction,Legend,Bot*
G04 #@! TF.FilePolarity,Positive*
%FSLAX46Y46*%
G04 Gerber Fmt 4.6, Leading zero omitted, Abs format (unit mm)*
G04 Created by KiCad (PCBNEW no-vcs-found-57ded58~58~ubuntu16.04.1) date Thu Apr 13 19:48:57 2017*
%MOMM*%
%LPD*%
G01*
G04 APERTURE LIST*
%ADD10C,0.100000*%
%ADD11C,0.120000*%
%ADD12C,0.150000*%
G04 APERTURE END LIST*
D10*
D11*
X181750000Y-50100000D02*
X181750000Y-53250000D01*
X183450000Y-50100000D02*
X183450000Y-53250000D01*
X181750000Y-50100000D02*
X183450000Y-50100000D01*
X177050000Y-55000000D02*
X177050000Y-58150000D01*
X178750000Y-55000000D02*
X178750000Y-58150000D01*
X177050000Y-55000000D02*
X178750000Y-55000000D01*
X179450000Y-52700000D02*
X181150000Y-52700000D01*
X181150000Y-52700000D02*
X181150000Y-55850000D01*
X179450000Y-52700000D02*
X179450000Y-55850000D01*
X183650000Y-47500000D02*
X183650000Y-50650000D01*
X185350000Y-47500000D02*
X185350000Y-50650000D01*
X183650000Y-47500000D02*
X185350000Y-47500000D01*
X185550000Y-44800000D02*
X187250000Y-44800000D01*
X187250000Y-44800000D02*
X187250000Y-47950000D01*
X185550000Y-44800000D02*
X185550000Y-47950000D01*
X189350000Y-39700000D02*
X189350000Y-42850000D01*
X191050000Y-39700000D02*
X191050000Y-42850000D01*
X189350000Y-39700000D02*
X191050000Y-39700000D01*
X187450000Y-42100000D02*
X189150000Y-42100000D01*
X189150000Y-42100000D02*
X189150000Y-45250000D01*
X187450000Y-42100000D02*
X187450000Y-45250000D01*
X170020000Y-60800000D02*
X170020000Y-61800000D01*
X171380000Y-61800000D02*
X171380000Y-60800000D01*
D12*
X130700000Y-68375000D02*
X130700000Y-69725000D01*
X125575000Y-68375000D02*
X125575000Y-63725000D01*
X130825000Y-68375000D02*
X130825000Y-63725000D01*
X125575000Y-68375000D02*
X125800000Y-68375000D01*
X125575000Y-63725000D02*
X125800000Y-63725000D01*
X130825000Y-63725000D02*
X130600000Y-63725000D01*
X130825000Y-68375000D02*
X130700000Y-68375000D01*
D11*
X77505348Y-68329524D02*
X77505348Y-69329524D01*
X75805348Y-69329524D02*
X75805348Y-68329524D01*
X153500000Y-88650000D02*
X154500000Y-88650000D01*
X154500000Y-90350000D02*
X153500000Y-90350000D01*
X86100000Y-34850000D02*
X86100000Y-34150000D01*
X84900000Y-34150000D02*
X84900000Y-34850000D01*
X75705596Y-58735664D02*
X75705596Y-58035664D01*
X74505596Y-58035664D02*
X74505596Y-58735664D01*
X78000000Y-58650000D02*
X79000000Y-58650000D01*
X79000000Y-60350000D02*
X78000000Y-60350000D01*
X160500000Y-85150000D02*
X161500000Y-85150000D01*
X161500000Y-86850000D02*
X160500000Y-86850000D01*
X163150000Y-60650000D02*
X163150000Y-61350000D01*
X164350000Y-61350000D02*
X164350000Y-60650000D01*
X178350000Y-52400000D02*
X178350000Y-51700000D01*
X177150000Y-51700000D02*
X177150000Y-52400000D01*
X179400000Y-49200000D02*
X179400000Y-49900000D01*
X180600000Y-49900000D02*
X180600000Y-49200000D01*
X182750000Y-47400000D02*
X182750000Y-46700000D01*
X181550000Y-46700000D02*
X181550000Y-47400000D01*
X183300000Y-43950000D02*
X183300000Y-44650000D01*
X184500000Y-44650000D02*
X184500000Y-43950000D01*
X186250000Y-42150000D02*
X186250000Y-41450000D01*
X185050000Y-41450000D02*
X185050000Y-42150000D01*
X188000000Y-39400000D02*
X188000000Y-38700000D01*
X186800000Y-38700000D02*
X186800000Y-39400000D01*
X188550000Y-36200000D02*
X188550000Y-36900000D01*
X189750000Y-36900000D02*
X189750000Y-36200000D01*
X86850000Y-50150000D02*
X86150000Y-50150000D01*
X86150000Y-51350000D02*
X86850000Y-51350000D01*
X233300000Y-106150000D02*
X232600000Y-106150000D01*
X232600000Y-107350000D02*
X233300000Y-107350000D01*
X228400000Y-106150000D02*
X227700000Y-106150000D01*
X227700000Y-107350000D02*
X228400000Y-107350000D01*
X157350000Y-102150000D02*
X156650000Y-102150000D01*
X156650000Y-103350000D02*
X157350000Y-103350000D01*
X181150000Y-133900000D02*
X181150000Y-134600000D01*
X182350000Y-134600000D02*
X182350000Y-133900000D01*
X80357101Y-130637197D02*
X86857101Y-130637197D01*
X80357101Y-130637197D02*
X80357101Y-119437197D01*
X86857101Y-130637197D02*
X86857101Y-119437197D01*
X71205596Y-62485664D02*
X71205596Y-60785664D01*
X71205596Y-60785664D02*
X74355596Y-60785664D01*
X71205596Y-62485664D02*
X74355596Y-62485664D01*
D12*
X86100000Y-37350000D02*
X86100000Y-38900000D01*
X84900000Y-37350000D02*
X84900000Y-38900000D01*
X91356921Y-128487437D02*
X91356921Y-127786397D01*
X91156261Y-128487437D02*
X91356921Y-128487437D01*
X88357281Y-128487437D02*
X88606201Y-128487437D01*
X88357281Y-127786397D02*
X88357281Y-128487437D01*
X156362856Y-92735424D02*
X156362856Y-93436464D01*
X156563516Y-92735424D02*
X156362856Y-92735424D01*
X159362496Y-92735424D02*
X159113576Y-92735424D01*
X159362496Y-93436464D02*
X159362496Y-92735424D01*
X137448060Y-82099820D02*
X138149100Y-82099820D01*
X138149100Y-82099820D02*
X138149100Y-81850900D01*
X138149100Y-79300840D02*
X138149100Y-79100180D01*
X138149100Y-79100180D02*
X137448060Y-79100180D01*
X140300180Y-81450340D02*
X140300180Y-82151380D01*
X140300180Y-82151380D02*
X140549100Y-82151380D01*
X143099160Y-82151380D02*
X143299820Y-82151380D01*
X143299820Y-82151380D02*
X143299820Y-81450340D01*
X149325000Y-93500000D02*
X149325000Y-94500000D01*
X150675000Y-94500000D02*
X150675000Y-93500000D01*
X159100000Y-96825000D02*
X158100000Y-96825000D01*
X158100000Y-98175000D02*
X159100000Y-98175000D01*
X158100000Y-100175000D02*
X159100000Y-100175000D01*
X159100000Y-98825000D02*
X158100000Y-98825000D01*
X72500000Y-64325000D02*
X73500000Y-64325000D01*
X73500000Y-62975000D02*
X72500000Y-62975000D01*
X71180596Y-58135664D02*
X71180596Y-59135664D01*
X72530596Y-59135664D02*
X72530596Y-58135664D01*
X72930596Y-58135664D02*
X72930596Y-59135664D01*
X74280596Y-59135664D02*
X74280596Y-58135664D01*
X155675000Y-94500000D02*
X155675000Y-93500000D01*
X154325000Y-93500000D02*
X154325000Y-94500000D01*
X88175000Y-34100000D02*
X88175000Y-33100000D01*
X86825000Y-33100000D02*
X86825000Y-34100000D01*
X137925000Y-61250000D02*
X137925000Y-60250000D01*
X136575000Y-60250000D02*
X136575000Y-61250000D01*
X138325000Y-60250000D02*
X138325000Y-61250000D01*
X139675000Y-61250000D02*
X139675000Y-60250000D01*
X139325000Y-69500000D02*
X139325000Y-70500000D01*
X140675000Y-70500000D02*
X140675000Y-69500000D01*
X162600000Y-43725000D02*
X161600000Y-43725000D01*
X161600000Y-45075000D02*
X162600000Y-45075000D01*
X161600000Y-47675000D02*
X162600000Y-47675000D01*
X162600000Y-46325000D02*
X161600000Y-46325000D01*
X162600000Y-48925000D02*
X161600000Y-48925000D01*
X161600000Y-50275000D02*
X162600000Y-50275000D01*
X161750000Y-55175000D02*
X162750000Y-55175000D01*
X162750000Y-53825000D02*
X161750000Y-53825000D01*
X161750000Y-57675000D02*
X162750000Y-57675000D01*
X162750000Y-56325000D02*
X161750000Y-56325000D01*
X86825000Y-37250000D02*
X86825000Y-38250000D01*
X88175000Y-38250000D02*
X88175000Y-37250000D01*
X84175000Y-38250000D02*
X84175000Y-37250000D01*
X82825000Y-37250000D02*
X82825000Y-38250000D01*
X86000000Y-45425000D02*
X87000000Y-45425000D01*
X87000000Y-44075000D02*
X86000000Y-44075000D01*
X109000000Y-34675000D02*
X110000000Y-34675000D01*
X110000000Y-33325000D02*
X109000000Y-33325000D01*
X110300000Y-50175000D02*
X109300000Y-50175000D01*
X109300000Y-51525000D02*
X110300000Y-51525000D01*
X109000000Y-37425000D02*
X110000000Y-37425000D01*
X110000000Y-36075000D02*
X109000000Y-36075000D01*
X110000000Y-38075000D02*
X109000000Y-38075000D01*
X109000000Y-39425000D02*
X110000000Y-39425000D01*
X115575000Y-43250000D02*
X115575000Y-44250000D01*
X116925000Y-44250000D02*
X116925000Y-43250000D01*
X113175000Y-44250000D02*
X113175000Y-43250000D01*
X111825000Y-43250000D02*
X111825000Y-44250000D01*
X109000000Y-45425000D02*
X110000000Y-45425000D01*
X110000000Y-44075000D02*
X109000000Y-44075000D01*
X109000000Y-47425000D02*
X110000000Y-47425000D01*
X110000000Y-46075000D02*
X109000000Y-46075000D01*
X136800000Y-84325000D02*
X135800000Y-84325000D01*
X135800000Y-85675000D02*
X136800000Y-85675000D01*
X142200000Y-77327280D02*
X141200000Y-77327280D01*
X141200000Y-78677280D02*
X142200000Y-78677280D01*
D11*
X233150000Y-78100000D02*
X233850000Y-78100000D01*
X233850000Y-76900000D02*
X233150000Y-76900000D01*
X233850000Y-69900000D02*
X233150000Y-69900000D01*
X233150000Y-71100000D02*
X233850000Y-71100000D01*
X233150000Y-64100000D02*
X233850000Y-64100000D01*
X233850000Y-62900000D02*
X233150000Y-62900000D01*
X232900000Y-57100000D02*
X233600000Y-57100000D01*
X233600000Y-55900000D02*
X232900000Y-55900000D01*
X233900000Y-48900000D02*
X233200000Y-48900000D01*
X233200000Y-50100000D02*
X233900000Y-50100000D01*
X233200000Y-43100000D02*
X233900000Y-43100000D01*
X233900000Y-41900000D02*
X233200000Y-41900000D01*
X227850000Y-34900000D02*
X227150000Y-34900000D01*
X227150000Y-36100000D02*
X227850000Y-36100000D01*
X230450000Y-79850000D02*
X231150000Y-79850000D01*
X231150000Y-78650000D02*
X230450000Y-78650000D01*
X225450000Y-79850000D02*
X226150000Y-79850000D01*
X226150000Y-78650000D02*
X225450000Y-78650000D01*
X232750000Y-134150000D02*
X233450000Y-134150000D01*
X233450000Y-132950000D02*
X232750000Y-132950000D01*
X237450000Y-134100000D02*
X238150000Y-134100000D01*
X238150000Y-132900000D02*
X237450000Y-132900000D01*
X213100000Y-74820000D02*
X212100000Y-74820000D01*
X212100000Y-76180000D02*
X213100000Y-76180000D01*
X221400000Y-77680000D02*
X222400000Y-77680000D01*
X222400000Y-76320000D02*
X221400000Y-76320000D01*
X212000000Y-69180000D02*
X213000000Y-69180000D01*
X213000000Y-67820000D02*
X212000000Y-67820000D01*
X222400000Y-69820000D02*
X221400000Y-69820000D01*
X221400000Y-71180000D02*
X222400000Y-71180000D01*
X213000000Y-60820000D02*
X212000000Y-60820000D01*
X212000000Y-62180000D02*
X213000000Y-62180000D01*
X221400000Y-63680000D02*
X222400000Y-63680000D01*
X222400000Y-62320000D02*
X221400000Y-62320000D01*
X212000000Y-55180000D02*
X213000000Y-55180000D01*
X213000000Y-53820000D02*
X212000000Y-53820000D01*
X222400000Y-55320000D02*
X221400000Y-55320000D01*
X221400000Y-56680000D02*
X222400000Y-56680000D01*
X133400000Y-62900000D02*
X132700000Y-62900000D01*
X132700000Y-64100000D02*
X133400000Y-64100000D01*
X203000000Y-119220000D02*
X202000000Y-119220000D01*
X202000000Y-120580000D02*
X203000000Y-120580000D01*
X202100000Y-112980000D02*
X203100000Y-112980000D01*
X203100000Y-111620000D02*
X202100000Y-111620000D01*
D12*
X153999820Y-93550800D02*
X153999820Y-92849760D01*
X153999820Y-92849760D02*
X153750900Y-92849760D01*
X151200840Y-92849760D02*
X151000180Y-92849760D01*
X151000180Y-92849760D02*
X151000180Y-93550800D01*
D11*
X169680000Y-64000000D02*
X169680000Y-63000000D01*
X168320000Y-63000000D02*
X168320000Y-64000000D01*
X169550000Y-67750000D02*
X169550000Y-67050000D01*
X168350000Y-67050000D02*
X168350000Y-67750000D01*
M02*
